Complete Example 3 • reporter
…
Create lookup for AE severity

    MILD MODERATE   SEVERE 
       1        2        3 

Subset ADAE for needed rows and columns

mutate: new variable 'AESEVN' (double) with 3 unique values and 0% NA

select: dropped 24 variables (STUDYID, DOMAIN, AESEQ, AETERM, AELLT, <U+0085>)

distinct: removed 18 rows (12%), 127 rows remaining

# A tibble: 127 x 6
   USUBJID    ARM   AESEV    AESEVN AESOC                          AEDECOD              
   <chr>      <chr> <chr>     <dbl> <chr>                          <chr>                
 1 ABC-01-049 ARM D MODERATE      2 Investigations                 BLOOD GLUCOSE INCREA~
 2 ABC-01-049 ARM D MODERATE      2 Investigations                 BLOOD TRIGLYCERIDES ~
 3 ABC-01-049 ARM D MILD          1 Nervous system disorders       HEADACHE             
 4 ABC-01-049 ARM D MODERATE      2 Investigations                 LABORATORY TEST ABNO~
 5 ABC-01-049 ARM D MILD          1 Musculoskeletal and connectiv~ MUSCULOSKELETAL DISC~
 6 ABC-01-050 ARM B MILD          1 Skin and subcutaneous tissue ~ RASH                 
 7 ABC-01-050 ARM B MILD          1 Respiratory, thoracic and med~ UPPER RESPIRATORY TR~
 8 ABC-01-051 ARM A MILD          1 Nervous system disorders       HEADACHE             
 9 ABC-01-051 ARM A MILD          1 General disorders and adminis~ INFLUENZA LIKE ILLNE~
10 ABC-01-051 ARM A MILD          1 Respiratory, thoracic and med~ LOWER RESPIRATORY TR~
# ... with 117 more rows
…
Identify and count highest severity grade for each subject

group_by: 4 grouping variables (USUBJID, ARM, AESOC, AEDECOD)

mutate (grouped): new variable 'max_sev' (logical) with 2 unique values and 0% NA

filter (grouped): removed one row (1%), 126 rows remaining

group_by: 4 grouping variables (ARM, AESOC, AEDECOD, AESEVN)

summarize: now 101 rows and 5 columns, 3 group variables remaining (ARM, AESOC, AEDECOD)

pivot_wider: reorganized (ARM, AESEVN, cnt) into (ARM A_2, ARM A_1, ARM B_1, ARM B_2, ARM B_3, <U+0085>) [was 101x5, now 73x11]

# A tibble: 73 x 11
# Groups:   AESOC, AEDECOD [73]
   AESOC   AEDECOD `ARM A_2` `ARM A_1` `ARM B_1` `ARM B_2` `ARM B_3` `ARM C_2` `ARM C_1`
   <chr>   <chr>       <int>     <int>     <int>     <int>     <int>     <int>     <int>
 1 Gastro~ TOOTHA~         1         0         0         0         0         0         0
 2 Genera~ INFLUE~         0         1         0         0         0         0         0
 3 Infect~ GASTRO~         1         0         0         0         0         0         0
 4 Infect~ INFLUE~         1         0         0         0         0         0         0
 5 Infect~ ORAL C~         1         0         0         0         0         0         0
 6 Infect~ PNEUMO~         1         0         0         0         0         0         0
 7 Infect~ RESPIR~         0         1         0         0         0         1         2
 8 Infect~ SINUSI~         0         1         0         0         0         0         0
 9 Infect~ TOOTH ~         1         0         0         0         0         0         0
10 Infect~ UPPER ~         0         4         5         1         0         0         3
# ... with 63 more rows, and 2 more variables: ARM D_1 <int>, ARM D_2 <int>

Fill in missing columns where there were no events.

# A tibble: 73 x 14
# Groups:   AESOC, AEDECOD [73]
   AESOC   AEDECOD `ARM A_2` `ARM A_1` `ARM B_1` `ARM B_2` `ARM B_3` `ARM C_2` `ARM C_1`
   <chr>   <chr>       <int>     <int>     <int>     <int>     <int>     <int>     <int>
 1 Gastro~ TOOTHA~         1         0         0         0         0         0         0
 2 Genera~ INFLUE~         0         1         0         0         0         0         0
 3 Infect~ GASTRO~         1         0         0         0         0         0         0
 4 Infect~ INFLUE~         1         0         0         0         0         0         0
 5 Infect~ ORAL C~         1         0         0         0         0         0         0
 6 Infect~ PNEUMO~         1         0         0         0         0         0         0
 7 Infect~ RESPIR~         0         1         0         0         0         1         2
 8 Infect~ SINUSI~         0         1         0         0         0         0         0
 9 Infect~ TOOTH ~         1         0         0         0         0         0         0
10 Infect~ UPPER ~         0         4         5         1         0         0         3
# ... with 63 more rows, and 5 more variables: ARM D_1 <int>, ARM D_2 <int>,
#   ARM A_3 <dbl>, ARM C_3 <dbl>, ARM D_3 <dbl>
…
                     converted 'ARM C_1' from integer to character (0 new NA)

                     converted 'ARM C_2' from integer to character (0 new NA)

                     converted 'ARM C_3' from double to character (0 new NA)

                     converted 'ARM D_1' from integer to character (0 new NA)

                     converted 'ARM D_2' from integer to character (0 new NA)

                     converted 'ARM D_3' from double to character (0 new NA)

ungroup: no grouping variables

# A tibble: 73 x 14
   AESOC   AEDECOD `ARM A_1` `ARM A_2` `ARM A_3` `ARM B_1` `ARM B_2` `ARM B_3` `ARM C_1`
   <chr>   <chr>   <chr>     <chr>     <chr>     <chr>     <chr>     <chr>     <chr>    
 1 Blood ~ Neutro~ 0 (  0.0~ 0 (  0.0~ 0 (  0.0~ 0 (  0.0~ 0 (  0.0~ 0 (  0.0~ 0 (  0.0~
 2 Cardia~ Palpit~ 0 (  0.0~ 0 (  0.0~ 0 (  0.0~ 0 (  0.0~ 0 (  0.0~ 0 (  0.0~ 0 (  0.0~
 3 Cardia~ Sinus ~ 0 (  0.0~ 0 (  0.0~ 0 (  0.0~ 0 (  0.0~ 0 (  0.0~ 0 (  0.0~ 0 (  0.0~
 4 Congen~ Dermoi~ 0 (  0.0~ 0 (  0.0~ 0 (  0.0~ 1 (  7.1~ 0 (  0.0~ 0 (  0.0~ 0 (  0.0~
 5 Ear an~ Vertigo 0 (  0.0~ 0 (  0.0~ 0 (  0.0~ 0 (  0.0~ 1 (  7.1~ 0 (  0.0~ 0 (  0.0~
 6 Endocr~ Parath~ 0 (  0.0~ 0 (  0.0~ 0 (  0.0~ 0 (  0.0~ 0 (  0.0~ 0 (  0.0~ 1 (  7.1~
 7 Gastro~ Diarrh~ 0 (  0.0~ 0 (  0.0~ 0 (  0.0~ 1 (  7.1~ 1 (  7.1~ 0 (  0.0~ 0 (  0.0~
 8 Gastro~ Food P~ 0 (  0.0~ 0 (  0.0~ 0 (  0.0~ 1 (  7.1~ 0 (  0.0~ 0 (  0.0~ 0 (  0.0~
 9 Gastro~ Tootha~ 0 (  0.0~ 1 (  7.1~ 0 (  0.0~ 0 (  0.0~ 0 (  0.0~ 0 (  0.0~ 0 (  0.0~
10 Gastro~ Vomiti~ 0 (  0.0~ 0 (  0.0~ 0 (  0.0~ 2 ( 14.3~ 0 (  0.0~ 0 (  0.0~ 0 (  0.0~
# ... with 63 more rows, and 5 more variables: ARM C_2 <chr>, ARM C_3 <chr>,
#   ARM D_1 <chr>, ARM D_2 <chr>, ARM D_3 <chr>
…
           converted 'ARM D_3' from double to character (0 new NA)

# A tibble: 1 x 14
  AESOC   AEDECOD  `ARM A_1` `ARM A_2` `ARM A_3` `ARM B_1` `ARM B_2` `ARM B_3` `ARM C_1`
  <chr>   <chr>    <chr>     <chr>     <chr>     <chr>     <chr>     <chr>     <chr>    
1 All Sy~ All Adv~ 6 ( 42.9~ 8 ( 57.1~ 0 (  0.0~ 8 ( 57.1~ 4 ( 28.6~ 2 ( 14.3~ 8 ( 57.1~
# ... with 5 more variables: ARM C_2 <chr>, ARM C_3 <chr>, ARM D_1 <chr>,
#   ARM D_2 <chr>, ARM D_3 <chr>

=========================================================================
Create final data frame
=========================================================================

# A tibble: 74 x 14
   AESOC   AEDECOD `ARM A_1` `ARM A_2` `ARM A_3` `ARM B_1` `ARM B_2` `ARM B_3` `ARM C_1`
   <chr>   <chr>   <chr>     <chr>     <chr>     <chr>     <chr>     <chr>     <chr>    
 1 All Sy~ All Ad~ 6 ( 42.9~ 8 ( 57.1~ 0 (  0.0~ 8 ( 57.1~ 4 ( 28.6~ 2 ( 14.3~ 8 ( 57.1~
 2 Blood ~ Neutro~ 0 (  0.0~ 0 (  0.0~ 0 (  0.0~ 0 (  0.0~ 0 (  0.0~ 0 (  0.0~ 0 (  0.0~
 3 Cardia~ Palpit~ 0 (  0.0~ 0 (  0.0~ 0 (  0.0~ 0 (  0.0~ 0 (  0.0~ 0 (  0.0~ 0 (  0.0~
 4 Cardia~ Sinus ~ 0 (  0.0~ 0 (  0.0~ 0 (  0.0~ 0 (  0.0~ 0 (  0.0~ 0 (  0.0~ 0 (  0.0~
 5 Congen~ Dermoi~ 0 (  0.0~ 0 (  0.0~ 0 (  0.0~ 1 (  7.1~ 0 (  0.0~ 0 (  0.0~ 0 (  0.0~
 6 Ear an~ Vertigo 0 (  0.0~ 0 (  0.0~ 0 (  0.0~ 0 (  0.0~ 1 (  7.1~ 0 (  0.0~ 0 (  0.0~
 7 Endocr~ Parath~ 0 (  0.0~ 0 (  0.0~ 0 (  0.0~ 0 (  0.0~ 0 (  0.0~ 0 (  0.0~ 1 (  7.1~
 8 Gastro~ Diarrh~ 0 (  0.0~ 0 (  0.0~ 0 (  0.0~ 1 (  7.1~ 1 (  7.1~ 0 (  0.0~ 0 (  0.0~
 9 Gastro~ Food P~ 0 (  0.0~ 0 (  0.0~ 0 (  0.0~ 1 (  7.1~ 0 (  0.0~ 0 (  0.0~ 0 (  0.0~
10 Gastro~ Tootha~ 0 (  0.0~ 1 (  7.1~ 0 (  0.0~ 0 (  0.0~ 0 (  0.0~ 0 (  0.0~ 0 (  0.0~
# ... with 64 more rows, and 5 more variables: ARM C_2 <chr>, ARM C_3 <chr>,
#   ARM D_1 <chr>, ARM D_2 <chr>, ARM D_3 <chr>
…
